…
# Problem 1

This dataset consists of 2595176 rows and 7 columns. The variables
include the weather station ID, observation date, precipitation
(measured in tenths of millimeters), snowfall (in millimeters), snow
depth (in millimeters), and both minimum and maximum temperatures (in
tenths of degrees Celsius).

``` r
ny_noaa %>% 
  count(tmax) %>%
  arrange(desc(n))
```

    ## # A tibble: 533 × 2
    ##    tmax        n
    ##    <chr>   <int>
    ##  1 <NA>  1134358
    ##  2 256     30736
    ##  3 267     30692
    ##  4 244     28909
    ##  5 239     28628
    ##  6 233     27902
    ##  7 250     27392
    ##  8 228     27342
    ##  9 261     26654
    ## 10 278     26355
    ## # ℹ 523 more rows

``` r
ny_noaa %>% 
  count(tmin) %>%
  arrange(desc(n))
```

    ## # A tibble: 549 × 2
    ##    tmin        n
    ##    <chr>   <int>
    ##  1 <NA>  1134420
    ##  2 0       32431
    ##  3 -11     31385
    ##  4 6       30763
    ##  5 -22     30502
    ##  6 -17     30163
    ##  7 -6      28909
    ##  8 17      28771
    ##  9 100     27891
    ## 10 128     27391
    ## # ℹ 539 more rows

For vairbles `tmax` and `tmin`, nearly half of the observations are
`NA`, indicating that there is a serious issue of missing data.

``` r
ny_noaa %>% 
  count(snow) %>%
  arrange(desc(n))
```

    ## # A tibble: 282 × 2
    ##     snow       n
    ##    <int>   <int>
    ##  1     0 2008508
    ##  2    NA  381221
    ##  3    25   31022
    ##  4    13   23095
    ##  5    51   18274
    ##  6    76   10173
    ##  7     8    9962
    ##  8     5    9748
    ##  9    38    9197
    ## 10     3    8790
    ## # ℹ 272 more rows
…
